         run       event       nTopo   nIdTracks       nJets      nMuons
      330470  1183722158           1           0           0           0
      330470  1183722342         394         429          16           0
      330470  1183727953         532         588          11           4
      330470  1183732647         467         484          12           1
      330470  1183733040         381         288           6           1
      330470  1183734651         361         368          14           3
      330470  1183735332         406         386           9           1
      330470  1183736475         741         686          15           1
      330470  1183738728           1           0           0           0
      330470  1183738949         368         444           9           1
      330470  1183742489         152         127           2           1
      330470  1183743040         285         326           5           0
      330470  1183746343         492         495          12           1
      330470  1183746710           6           0           0           0
      330470  1183751782         239         246           2           0
      330470  1183752624         347         366           7           3
      330470  1183753006         357         398          11           3
      330470  1183754806         470         423          14           0
      330470  1183769295         342         336           7           2
      330470  1183769939         348         362          10           3
      330470  1183773832         307         209           7           0
      330470  1183775209          57           0           0           0
      330470  1183787124         431         382          10           2
      330470  1183787946         321         324           5           1
      330470  1183795329         458         355          18           0
